Add CWRES — addCwres • nlmixr2
…
#> 
#>        Parameter  Est.     SE %RSE Back-transformed(95%CI) BSV(CV%) Shrink(SD)%
#> tka       Log Ka 0.453  0.195 43.1       1.57 (1.07, 2.31)     71.4    -0.445% 
#> tcl       Log Cl  1.02 0.0843 8.29       2.76 (2.34, 3.26)     27.2      3.88% 
#> tv         log V  3.45 0.0467 1.35       31.5 (28.8, 34.5)     13.9      10.2% 
#> add.sd           0.695                               0.695                     
#>  
#>   Covariance Type ($covMethod): linFim
#>   No correlations in between subject variability (BSV) matrix
#>   Full BSV covariance ($omega) or correlation ($omegaR; diagonals=SDs) 
#>   Distribution stats (mean/skewness/kurtosis/p-value) available in $shrink 
#>   Censoring ($censInformation): No censoring
#> 
#> ── Fit Data (object is a modified tibble): ──
#> # A tibble: 132 × 16
#>   ID     TIME    DV  PRED    RES IPRED   IRES  IWRES eta.ka eta.cl   eta.v    ka
#>   <fct> <dbl> <dbl> <dbl>  <dbl> <dbl>  <dbl>  <dbl>  <dbl>  <dbl>   <dbl> <dbl>
#> 1 1      0     0.74  0     0.74   0     0.74   1.07   0.107 -0.485 -0.0809  1.75
#> 2 1      0.25  2.84  3.26 -0.424  3.87 -1.03  -1.49   0.107 -0.485 -0.0809  1.75
#> 3 1      0.57  6.57  5.84  0.726  6.82 -0.250 -0.360  0.107 -0.485 -0.0809  1.75
#> # ℹ 129 more rows
#> # ℹ 4 more variables: cl <dbl>, v <dbl>, tad <dbl>, dosenum <dbl>
…
#> 
#>        Parameter  Est.     SE %RSE Back-transformed(95%CI) BSV(CV%) Shrink(SD)%
#> tka       Log Ka 0.453  0.195 43.1       1.57 (1.07, 2.31)     71.4    -0.445% 
#> tcl       Log Cl  1.02 0.0843 8.29       2.76 (2.34, 3.26)     27.2      3.88% 
#> tv         log V  3.45 0.0467 1.35       31.5 (28.8, 34.5)     13.9      10.2% 
#> add.sd           0.695                               0.695                     
#>  
#>   Covariance Type ($covMethod): linFim
#>   No correlations in between subject variability (BSV) matrix
#>   Full BSV covariance ($omega) or correlation ($omegaR; diagonals=SDs) 
#>   Distribution stats (mean/skewness/kurtosis/p-value) available in $shrink 
#>   Censoring ($censInformation): No censoring
#> 
#> ── Fit Data (object is a modified tibble): ──
#> # A tibble: 132 × 20
#>   ID     TIME    DV  PRED    RES IPRED   IRES  IWRES eta.ka eta.cl   eta.v    ka
#>   <fct> <dbl> <dbl> <dbl>  <dbl> <dbl>  <dbl>  <dbl>  <dbl>  <dbl>   <dbl> <dbl>
#> 1 1      0     0.74  0     0.74   0     0.74   1.07   0.107 -0.485 -0.0809  1.75
#> 2 1      0.25  2.84  3.26 -0.424  3.87 -1.03  -1.49   0.107 -0.485 -0.0809  1.75
#> 3 1      0.57  6.57  5.84  0.726  6.82 -0.250 -0.360  0.107 -0.485 -0.0809  1.75
#> # ℹ 129 more rows
#> # ℹ 8 more variables: cl <dbl>, v <dbl>, tad <dbl>, dosenum <dbl>, WRES <dbl>,
#> #   CPRED <dbl>, CRES <dbl>, CWRES <dbl>
…
