Control for bobyqa estimation method in nlmixr2 — bobyqaControl • nlmixr2
…
#> elapsed 0.003156 0.037     0.01 2.555844
#> 
#> ── ($parFixed or $parFixedDf): ──
#> 
#>        Est.     SE  %RSE   Back-transformed(95%CI) BSV(SD) Shrink(SD)%
#> E0  -0.7442 0.2571 34.54 -0.7442 (-1.248, -0.2404)                    
#> Em    4.627  1.575 34.04       4.627 (1.54, 7.714)                    
#> E50   2.376 0.9338  39.3     2.376 (0.5458, 4.206)                    
#> g         2  FIXED FIXED                         2                    
#>  
#>   Covariance Type ($covMethod): r
#>   Censoring ($censInformation): No censoring
#> 
#> ── Fit Data (object is a modified tibble): ──
#> # A tibble: 1,000 × 5
#>   ID      TIME    DV  IPRED      v
#>   <fct>  <dbl> <dbl>  <dbl>  <dbl>
#> 1 1     0.0304     1 -1.13  -0.743
#> 2 1     0.0320     0 -0.389 -0.743
#> 3 1     0.0329     0 -0.389 -0.743
#> # ℹ 997 more rows
…
