Control for lbfgsb3c estimation method in nlmixr2 — lbfgsb3cControl • nlmixr2
…
#> ── ($parFixed or $parFixedDf): ──
#> 
#>        Est.     SE  %RSE     Back-transformed(95%CI) BSV(SD) Shrink(SD)%
#> E0  -0.5031 0.2098 41.69 -0.5031 (-0.9142, -0.09196)                    
#> Em    18.29  50.71 277.3        18.29 (-81.1, 117.7)                    
#> E50   7.124  11.52 161.7       7.124 (-15.46, 29.71)                    
#> g         2  FIXED FIXED                           2                    
#>  
#>   Covariance Type ($covMethod): r
#>   Censoring ($censInformation): No censoring
#>   Minimization message ($message):  
#>     CONVERGENCE: REL_REDUCTION_OF_F_<=_FACTR*EPSMCH 
#> 
#> ── Fit Data (object is a modified tibble): ──
#> # A tibble: 1,000 × 5
#>   ID      TIME    DV  IPRED      v
#>   <fct>  <dbl> <dbl>  <dbl>  <dbl>
#> 1 1     0.0323     0 -0.473 -0.503
#> 2 1     0.0398     1 -0.976 -0.503
#> 3 1     0.0418     0 -0.473 -0.502
#> # ℹ 997 more rows
…
