Control for n1qn1 estimation method in nlmixr2 — n1qn1Control • nlmixr2
…
#> elapsed 0.001949 0.022    0.008 1.725051
#> 
#> ── ($parFixed or $parFixedDf): ──
#> 
#>        Est.     SE  %RSE   Back-transformed(95%CI) BSV(SD) Shrink(SD)%
#> E0  -0.5664 0.2303 40.66 -0.5664 (-1.018, -0.1151)                    
#> Em    4.922  1.714 34.83      4.922 (1.562, 8.282)                    
#> E50   2.593 0.9697  37.4     2.593 (0.6922, 4.493)                    
#> g         2  FIXED FIXED                         2                    
#>  
#>   Covariance Type ($covMethod): r
#>   Censoring ($censInformation): No censoring
#> 
#> ── Fit Data (object is a modified tibble): ──
#> # A tibble: 1,000 × 5
#>   ID      TIME    DV  IPRED      v
#>   <fct>  <dbl> <dbl>  <dbl>  <dbl>
#> 1 1     0.0550     1 -1.01  -0.564
#> 2 1     0.0756     1 -1.01  -0.562
#> 3 1     0.0881     0 -0.452 -0.561
#> # ℹ 997 more rows
…
