Control for newuoa estimation method in nlmixr2 — newuoaControl • nlmixr2
…
#> elapsed 0.002018 0.023    0.008 1.461982
#> 
#> ── ($parFixed or $parFixedDf): ──
#> 
#>        Est.     SE  %RSE     Back-transformed(95%CI) BSV(SD) Shrink(SD)%
#> E0  -0.5334 0.2235 41.91 -0.5334 (-0.9715, -0.09529)                    
#> Em    6.102  3.286 53.85      6.102 (-0.3387, 12.54)                    
#> E50   3.537  1.708 48.28       3.537 (0.1904, 6.884)                    
#> g         2  FIXED FIXED                           2                    
#>  
#>   Covariance Type ($covMethod): r
#>   Censoring ($censInformation): No censoring
#> 
#> ── Fit Data (object is a modified tibble): ──
#> # A tibble: 1,000 × 5
#>   ID      TIME    DV  IPRED      v
#>   <fct>  <dbl> <dbl>  <dbl>  <dbl>
#> 1 1     0.0255     0 -0.462 -0.533
#> 2 1     0.0524     0 -0.462 -0.532
#> 3 1     0.0626     0 -0.462 -0.531
#> # ℹ 997 more rows
…
