nlmixr2 defaults controls for nlm — nlmControl • nlmixr2
…
#> ── ($parFixed or $parFixedDf): ──
#> 
#>        Est.    SE  %RSE Back-transformed(95%CI) BSV(SD) Shrink(SD)%
#> E0  -0.6554 7.837  1196  -0.6554 (-16.02, 14.7)                    
#> Em     5.69 129.4  2274      5.69 (-248, 259.4)                    
#> E50   2.907 68.67  2362   2.907 (-131.7, 137.5)                    
#> g         2 FIXED FIXED                       2                    
#>  
#>   Covariance Type ($covMethod): r (nlm)
#>   Censoring ($censInformation): No censoring
#>   Minimization message ($message):  
#>     relative gradient is close to zero, current iterate is probably solution 
#> 
#> ── Fit Data (object is a modified tibble): ──
#> # A tibble: 1,000 × 5
#>   ID      TIME    DV  IPRED      v
#>   <fct>  <dbl> <dbl>  <dbl>  <dbl>
#> 1 1     0.0394     0 -0.419 -0.654
#> 2 1     0.0410     0 -0.419 -0.654
#> 3 1     0.0491     0 -0.419 -0.654
#> # ℹ 997 more rows
…
