nlmixr2 nlminb defaults — nlminbControl • nlmixr2
…
#> ── ($parFixed or $parFixedDf): ──
#> 
#>        Est.     SE  %RSE   Back-transformed(95%CI) BSV(SD) Shrink(SD)%
#> E0  -0.6649 0.2209 33.23 -0.6649 (-1.098, -0.2319)                    
#> Em    10.83     13 120.1      10.83 (-14.65, 36.3)                    
#> E50    4.74  3.841 81.05      4.74 (-2.789, 12.27)                    
#> g         2  FIXED FIXED                         2                    
#>  
#>   Covariance Type ($covMethod): r (nlminb)
#>   Censoring ($censInformation): No censoring
#>   Minimization message ($message):  
#>     relative convergence (4) 
#> 
#> ── Fit Data (object is a modified tibble): ──
#> # A tibble: 1,000 × 5
#>   ID      TIME    DV  IPRED      v
#>   <fct>  <dbl> <dbl>  <dbl>  <dbl>
#> 1 1     0.0165     0 -0.415 -0.665
#> 2 1     0.0372     0 -0.415 -0.664
#> 3 1     0.0882     0 -0.416 -0.661
#> # ℹ 997 more rows
…
