nlmixr2 optim defaults — optimControl • nlmixr2
…
#> elapsed 0.001951 0.034    0.008 1.822049
#> 
#> ── ($parFixed or $parFixedDf): ──
#> 
#>        Est.     SE  %RSE   Back-transformed(95%CI) BSV(SD) Shrink(SD)%
#> E0  -0.5958 0.2283 38.32 -0.5958 (-1.043, -0.1483)                    
#> Em      7.3  5.377 73.66       7.3 (-3.239, 17.84)                    
#> E50   3.699  2.165 58.53    3.699 (-0.5442, 7.942)                    
#> g         2  FIXED FIXED                         2                    
#>  
#>   Covariance Type ($covMethod): r
#>   Censoring ($censInformation): No censoring
#> 
#> ── Fit Data (object is a modified tibble): ──
#> # A tibble: 1,000 × 5
#>   ID      TIME    DV  IPRED      v
#>   <fct>  <dbl> <dbl>  <dbl>  <dbl>
#> 1 1     0.0304     0 -0.439 -0.595
#> 2 1     0.0320     1 -1.03  -0.595
#> 3 1     0.0329     1 -1.03  -0.595
#> # ℹ 997 more rows
…
