…
#> tv       0.35 0.0548 15.7          1.42 (1.27, 1.58)     41.9      1.40% 
#> add.err  2.76                                   2.76                     
#>  
#>   Covariance Type ($covMethod): linFim
#>   Correlations in between subject variability (BSV) matrix:
#>     cor:eta.v,eta.cl 
#>           0.946  
#>  
#> 
#>   Full BSV covariance ($omega) or correlation ($omegaR; diagonals=SDs) 
#>   Distribution stats (mean/skewness/kurtosis/p-value) available in $shrink 
#>   Censoring ($censInformation): No censoring
#> 
#> ── Fit Data (object is a modified tibble): ──
#> # A tibble: 155 × 26
#>   ID     TIME    DV EPRED  ERES   NPDE     NPD   PDE    PD  PRED    RES    WRES
#>   <fct> <dbl> <dbl> <dbl> <dbl>  <dbl>   <dbl> <dbl> <dbl> <dbl>  <dbl>   <dbl>
#> 1 1        2   17.3  18.9 -1.58 -0.350 -0.0920 0.363 0.463  17.5 -0.162 -0.0214
#> 2 1      112.  31    29.7  1.25  0.245  0.245  0.597 0.597  28.0  2.98   0.244 
#> 3 2        2    9.7  11.4 -1.71 -0.664 -0.202  0.253 0.42   10.5 -0.777 -0.154 
#> # ℹ 152 more rows
#> # ℹ 14 more variables: IPRED <dbl>, IRES <dbl>, IWRES <dbl>, CPRED <dbl>,
#> #   CRES <dbl>, CWRES <dbl>, eta.cl <dbl>, eta.v <dbl>, A1 <dbl>, cl <dbl>,
#> #   v <dbl>, ke <dbl>, tad <dbl>, dosenum <dbl>
```
…
