Modifying nlmixr2 models by piping • nlmixr2
…
#>    • gradient problems with initial estimate and covariance; see $scaleInfo 
#>    • last objective function was not at minimum, possible problems in optimization 
#>    • ETAs were reset to zero during optimization; (Can control by foceiControl(resetEtaP=.)) 
#>    • initial ETAs were nudged; (can control by foceiControl(etaNudge=., etaNudge2=)) 
#>   Censoring ($censInformation): No censoring
#>   Minimization message ($message):  
#>     false convergence (8) 
#>   In an ODE system, false convergence may mean "useless" evaluations were performed.
#>   See https://tinyurl.com/yyrrwkce
#>   It could also mean the convergence is poor, check results before accepting fit
#>   You may also try a good derivative free optimization:
#>     nlmixr2(...,control=list(outerOpt="bobyqa"))
#> 
#> ── Fit Data (object is a modified tibble): ──
#> # A tibble: 132 × 28
#>   ID     TIME    DV EPRED   ERES   NPDE    NPD    PDE    PD  PRED    RES   WRES
#>   <fct> <dbl> <dbl> <dbl>  <dbl>  <dbl>  <dbl>  <dbl> <dbl> <dbl>  <dbl>  <dbl>
#> 1 1      0     0.74 0.109  0.631  0.449  0.890 0.673  0.813  0     0.74   1.07 
#> 2 1      0.25  2.84 3.61  -0.775 -0.505 -0.394 0.307  0.347  3.26 -0.424 -0.227
#> 3 1      0.57  6.57 5.92   0.652 -1.79   0.332 0.0367 0.63   5.83  0.741  0.299
#> # ℹ 129 more rows
#> # ℹ 16 more variables: IPRED <dbl>, IRES <dbl>, IWRES <dbl>, CPRED <dbl>,
#> #   CRES <dbl>, CWRES <dbl>, eta.ka <dbl>, eta.cl <dbl>, eta.v <dbl>,
#> #   depot <dbl>, center <dbl>, ka <dbl>, cl <dbl>, v <dbl>, tad <dbl>,
#> #   dosenum <dbl>
…
#>    • gradient problems with initial estimate and covariance; see $scaleInfo 
#>    • last objective function was not at minimum, possible problems in optimization 
#>    • ETAs were reset to zero during optimization; (Can control by foceiControl(resetEtaP=.)) 
#>    • initial ETAs were nudged; (can control by foceiControl(etaNudge=., etaNudge2=)) 
#>   Censoring ($censInformation): No censoring
#>   Minimization message ($message):  
#>     false convergence (8) 
#>   In an ODE system, false convergence may mean "useless" evaluations were performed.
#>   See https://tinyurl.com/yyrrwkce
#>   It could also mean the convergence is poor, check results before accepting fit
#>   You may also try a good derivative free optimization:
#>     nlmixr2(...,control=list(outerOpt="bobyqa"))
#> 
#> ── Fit Data (object is a modified tibble): ──
#> # A tibble: 132 × 28
#>   ID     TIME    DV EPRED   ERES   NPDE    NPD   PDE    PD  PRED    RES   WRES
#>   <fct> <dbl> <dbl> <dbl>  <dbl>  <dbl>  <dbl> <dbl> <dbl> <dbl>  <dbl>  <dbl>
#> 1 1      0     0.74 0.109  0.631  0.440  0.878 0.67  0.81   0     0.74   1.06 
#> 2 1      0.25  2.84 3.71  -0.867 -0.477 -0.422 0.317 0.337  3.36 -0.517 -0.272
#> 3 1      0.57  6.57 6.03   0.545 -1.75   0.253 0.04  0.6    5.95  0.616  0.247
#> # ℹ 129 more rows
#> # ℹ 16 more variables: IPRED <dbl>, IRES <dbl>, IWRES <dbl>, CPRED <dbl>,
#> #   CRES <dbl>, CWRES <dbl>, eta.ka <dbl>, eta.cl <dbl>, eta.v <dbl>,
#> #   depot <dbl>, center <dbl>, ka <dbl>, cl <dbl>, v <dbl>, tad <dbl>,
#> #   dosenum <dbl>
…
#>    • gradient problems with initial estimate and covariance; see $scaleInfo 
#>    • last objective function was not at minimum, possible problems in optimization 
#>    • ETAs were reset to zero during optimization; (Can control by foceiControl(resetEtaP=.)) 
#>    • initial ETAs were nudged; (can control by foceiControl(etaNudge=., etaNudge2=)) 
#>   Censoring ($censInformation): No censoring
#>   Minimization message ($message):  
#>     false convergence (8) 
#>   In an ODE system, false convergence may mean "useless" evaluations were performed.
#>   See https://tinyurl.com/yyrrwkce
#>   It could also mean the convergence is poor, check results before accepting fit
#>   You may also try a good derivative free optimization:
#>     nlmixr2(...,control=list(outerOpt="bobyqa"))
#> 
#> ── Fit Data (object is a modified tibble): ──
#> # A tibble: 132 × 28
#>   ID     TIME    DV EPRED   ERES   NPDE    NPD    PDE    PD  PRED    RES   WRES
#>   <fct> <dbl> <dbl> <dbl>  <dbl>  <dbl>  <dbl>  <dbl> <dbl> <dbl>  <dbl>  <dbl>
#> 1 1      0     0.74 0.109  0.631  0.440  0.890 0.67   0.813  0     0.74   1.07 
#> 2 1      0.25  2.84 3.63  -0.785 -0.505 -0.394 0.307  0.347  3.27 -0.434 -0.232
#> 3 1      0.57  6.57 5.93   0.635 -1.79   0.332 0.0367 0.63   5.85  0.724  0.292
#> # ℹ 129 more rows
#> # ℹ 16 more variables: IPRED <dbl>, IRES <dbl>, IWRES <dbl>, CPRED <dbl>,
#> #   CRES <dbl>, CWRES <dbl>, eta.ka <dbl>, eta.cl <dbl>, eta.v <dbl>,
#> #   depot <dbl>, center <dbl>, ka <dbl>, cl <dbl>, v <dbl>, tad <dbl>,
#> #   dosenum <dbl>
…
#>    • gradient problems with initial estimate and covariance; see $scaleInfo 
#>    • last objective function was not at minimum, possible problems in optimization 
#>    • ETAs were reset to zero during optimization; (Can control by foceiControl(resetEtaP=.)) 
#>    • initial ETAs were nudged; (can control by foceiControl(etaNudge=., etaNudge2=)) 
#>   Censoring ($censInformation): No censoring
#>   Minimization message ($message):  
#>     false convergence (8) 
#>   In an ODE system, false convergence may mean "useless" evaluations were performed.
#>   See https://tinyurl.com/yyrrwkce
#>   It could also mean the convergence is poor, check results before accepting fit
#>   You may also try a good derivative free optimization:
#>     nlmixr2(...,control=list(outerOpt="bobyqa"))
#> 
#> ── Fit Data (object is a modified tibble): ──
#> # A tibble: 132 × 28
#>   ID     TIME    DV EPRED   ERES   NPDE    NPD    PDE    PD  PRED    RES   WRES
#>   <fct> <dbl> <dbl> <dbl>  <dbl>  <dbl>  <dbl>  <dbl> <dbl> <dbl>  <dbl>  <dbl>
#> 1 1      0     0.74 0.109  0.631  0.440  0.878 0.67   0.81   0     0.74   1.06 
#> 2 1      0.25  2.84 3.66  -0.825 -0.496 -0.394 0.31   0.347  3.31 -0.469 -0.247
#> 3 1      0.57  6.57 5.97   0.599 -1.79   0.288 0.0367 0.613  5.89  0.680  0.271
#> # ℹ 129 more rows
#> # ℹ 16 more variables: IPRED <dbl>, IRES <dbl>, IWRES <dbl>, CPRED <dbl>,
#> #   CRES <dbl>, CWRES <dbl>, eta.ka <dbl>, eta.cl <dbl>, eta.v <dbl>,
#> #   depot <dbl>, center <dbl>, ka <dbl>, cl <dbl>, v <dbl>, tad <dbl>,
#> #   dosenum <dbl>
…
#>  
#>   Covariance Type ($covMethod): r,s
#>   No correlations in between subject variability (BSV) matrix
#>   Full BSV covariance ($omega) or correlation ($omegaR; diagonals=SDs) 
#>   Distribution stats (mean/skewness/kurtosis/p-value) available in $shrink 
#>   Information about run found ($runInfo):
#>    • gradient problems with initial estimate and covariance; see $scaleInfo 
#>    • ETAs were reset to zero during optimization; (Can control by foceiControl(resetEtaP=.)) 
#>    • initial ETAs were nudged; (can control by foceiControl(etaNudge=., etaNudge2=)) 
#>   Censoring ($censInformation): No censoring
#>   Minimization message ($message):  
#>     relative convergence (4) 
#> 
#> ── Fit Data (object is a modified tibble): ──
#> # A tibble: 132 × 27
#>   ID     TIME    DV EPRED   ERES    NPDE    NPD    PDE    PD  PRED    RES   WRES
#>   <fct> <dbl> <dbl> <dbl>  <dbl>   <dbl>  <dbl>  <dbl> <dbl> <dbl>  <dbl>  <dbl>
#> 1 1      0     0.74 0.160  0.580  0.0753  0.486 0.53   0.687  0     0.74   0.725
#> 2 1      0.25  2.84 3.18  -0.341 -1.38   -0.245 0.0833 0.403  3.12 -0.284 -0.253
#> 3 1      0.57  6.57 5.68   0.891 -0.524   0.674 0.3    0.75   5.62  0.952  0.722
#> # ℹ 129 more rows
#> # ℹ 15 more variables: IPRED <dbl>, IRES <dbl>, IWRES <dbl>, CPRED <dbl>,
#> #   CRES <dbl>, CWRES <dbl>, eta.cl <dbl>, eta.v <dbl>, depot <dbl>,
#> #   center <dbl>, ka <dbl>, cl <dbl>, v <dbl>, tad <dbl>, dosenum <dbl>
…
#>    • gradient problems with initial estimate and covariance; see $scaleInfo 
#>    • last objective function was not at minimum, possible problems in optimization 
#>    • ETAs were reset to zero during optimization; (Can control by foceiControl(resetEtaP=.)) 
#>    • initial ETAs were nudged; (can control by foceiControl(etaNudge=., etaNudge2=)) 
#>   Censoring ($censInformation): No censoring
#>   Minimization message ($message):  
#>     false convergence (8) 
#>   In an ODE system, false convergence may mean "useless" evaluations were performed.
#>   See https://tinyurl.com/yyrrwkce
#>   It could also mean the convergence is poor, check results before accepting fit
#>   You may also try a good derivative free optimization:
#>     nlmixr2(...,control=list(outerOpt="bobyqa"))
#> 
#> ── Fit Data (object is a modified tibble): ──
#> # A tibble: 132 × 28
#>   ID     TIME    DV EPRED   ERES   NPDE    NPD   PDE    PD  PRED    RES   WRES
#>   <fct> <dbl> <dbl> <dbl>  <dbl>  <dbl>  <dbl> <dbl> <dbl> <dbl>  <dbl>  <dbl>
#> 1 1      0     0.74 0.109  0.631  0.431  0.878 0.667 0.81   0     0.74   1.06 
#> 2 1      0.25  2.84 3.67  -0.833 -0.954 -0.297 0.17  0.383  3.27 -0.432 -0.236
#> 3 1      0.57  6.57 5.98   0.587 -1.26   0.297 0.103 0.617  5.84  0.729  0.300
#> # ℹ 129 more rows
#> # ℹ 16 more variables: IPRED <dbl>, IRES <dbl>, IWRES <dbl>, CPRED <dbl>,
#> #   CRES <dbl>, CWRES <dbl>, eta.cl <dbl>, eta.v <dbl>, bsv.ka <dbl>,
#> #   depot <dbl>, center <dbl>, ka <dbl>, cl <dbl>, v <dbl>, tad <dbl>,
#> #   dosenum <dbl>
…
#>    • gradient problems with initial estimate and covariance; see $scaleInfo 
#>    • last objective function was not at minimum, possible problems in optimization 
#>    • ETAs were reset to zero during optimization; (Can control by foceiControl(resetEtaP=.)) 
#>    • initial ETAs were nudged; (can control by foceiControl(etaNudge=., etaNudge2=)) 
#>   Censoring ($censInformation): No censoring
#>   Minimization message ($message):  
#>     false convergence (8) 
#>   In an ODE system, false convergence may mean "useless" evaluations were performed.
#>   See https://tinyurl.com/yyrrwkce
#>   It could also mean the convergence is poor, check results before accepting fit
#>   You may also try a good derivative free optimization:
#>     nlmixr2(...,control=list(outerOpt="bobyqa"))
#> 
#> ── Fit Data (object is a modified tibble): ──
#> # A tibble: 132 × 29
#>   ID     TIME    DV EPRED   ERES   NPDE    NPD    PDE    PD  PRED    RES   WRES
#>   <fct> <dbl> <dbl> <dbl>  <dbl>  <dbl>  <dbl>  <dbl> <dbl> <dbl>  <dbl>  <dbl>
#> 1 1      0     0.74 0.109  0.631  0.403  0.878 0.657  0.81   0     0.74   1.06 
#> 2 1      0.25  2.84 3.70  -0.864 -0.440 -0.422 0.33   0.337  3.36 -0.518 -0.274
#> 3 1      0.57  6.57 6.01   0.555 -1.79   0.271 0.0367 0.607  5.95  0.624  0.253
#> # ℹ 129 more rows
#> # ℹ 17 more variables: IPRED <dbl>, IRES <dbl>, IWRES <dbl>, CPRED <dbl>,
#> #   CRES <dbl>, CWRES <dbl>, eta.ka <dbl>, eta.cl <dbl>, eta.v <dbl>,
#> #   depot <dbl>, center <dbl>, ka <dbl>, cl <dbl>, v <dbl>, tad <dbl>,
#> #   dosenum <dbl>, WT <dbl>
…
#>    • gradient problems with initial estimate and covariance; see $scaleInfo 
#>    • last objective function was not at minimum, possible problems in optimization 
#>    • ETAs were reset to zero during optimization; (Can control by foceiControl(resetEtaP=.)) 
#>    • initial ETAs were nudged; (can control by foceiControl(etaNudge=., etaNudge2=)) 
#>   Censoring ($censInformation): No censoring
#>   Minimization message ($message):  
#>     false convergence (8) 
#>   In an ODE system, false convergence may mean "useless" evaluations were performed.
#>   See https://tinyurl.com/yyrrwkce
#>   It could also mean the convergence is poor, check results before accepting fit
#>   You may also try a good derivative free optimization:
#>     nlmixr2(...,control=list(outerOpt="bobyqa"))
#> 
#> ── Fit Data (object is a modified tibble): ──
#> # A tibble: 132 × 28
#>   ID     TIME    DV  EPRED   ERES   NPDE    NPD   PDE    PD  PRED    RES   WRES
#>   <fct> <dbl> <dbl>  <dbl>  <dbl>  <dbl>  <dbl> <dbl> <dbl> <dbl>  <dbl>  <dbl>
#> 1 1      0     0.74 0.0431  0.697  0.994  2.71  0.84  0.997  0     0.74   2.70 
#> 2 1      0.25  2.84 3.39   -0.552 -0.674 -0.271 0.25  0.393  3.07 -0.230 -0.135
#> 3 1      0.57  6.57 5.69    0.881 -0.297  0.403 0.383 0.657  5.56  1.01   0.414
#> # ℹ 129 more rows
#> # ℹ 16 more variables: IPRED <dbl>, IRES <dbl>, IWRES <dbl>, CPRED <dbl>,
#> #   CRES <dbl>, CWRES <dbl>, eta.ka <dbl>, eta.cl <dbl>, eta.v <dbl>,
#> #   depot <dbl>, center <dbl>, ka <dbl>, cl <dbl>, v <dbl>, tad <dbl>,
#> #   dosenum <dbl>
…
