…
#>    • gradient problems with initial estimate and covariance; see $scaleInfo 
#>    • last objective function was not at minimum, possible problems in optimization 
#>    • ETAs were reset to zero during optimization; (Can control by foceiControl(resetEtaP=.)) 
#>    • initial ETAs were nudged; (can control by foceiControl(etaNudge=., etaNudge2=)) 
#>   Censoring ($censInformation): No censoring
#>   Minimization message ($message):  
#>     false convergence (8) 
#>   In an ODE system, false convergence may mean "useless" evaluations were performed.
#>   See https://tinyurl.com/yyrrwkce
#>   It could also mean the convergence is poor, check results before accepting fit
#>   You may also try a good derivative free optimization:
#>     nlmixr2(...,control=list(outerOpt="bobyqa"))
#> 
#> ── Fit Data (object is a modified tibble): ──
#> # A tibble: 132 × 28
#>   ID     TIME    DV EPRED   ERES   NPDE    NPD    PDE    PD  PRED    RES   WRES
#>   <fct> <dbl> <dbl> <dbl>  <dbl>  <dbl>  <dbl>  <dbl> <dbl> <dbl>  <dbl>  <dbl>
#> 1 1      0     0.74 0.109  0.631  0.449  0.878 0.673  0.81   0     0.74   1.06 
#> 2 1      0.25  2.84 3.64  -0.804 -0.496 -0.394 0.31   0.347  3.29 -0.452 -0.240
#> 3 1      0.57  6.57 5.95   0.617 -1.79   0.323 0.0367 0.627  5.87  0.703  0.282
#> # ℹ 129 more rows
#> # ℹ 16 more variables: IPRED <dbl>, IRES <dbl>, IWRES <dbl>, CPRED <dbl>,
#> #   CRES <dbl>, CWRES <dbl>, eta.ka <dbl>, eta.cl <dbl>, eta.v <dbl>,
#> #   depot <dbl>, center <dbl>, ka <dbl>, cl <dbl>, v <dbl>, tad <dbl>,
#> #   dosenum <dbl>
```
…
#>    • gradient problems with initial estimate and covariance; see $scaleInfo 
#>    • last objective function was not at minimum, possible problems in optimization 
#>    • ETAs were reset to zero during optimization; (Can control by foceiControl(resetEtaP=.)) 
#>    • initial ETAs were nudged; (can control by foceiControl(etaNudge=., etaNudge2=)) 
#>   Censoring ($censInformation): No censoring
#>   Minimization message ($message):  
#>     false convergence (8) 
#>   In an ODE system, false convergence may mean "useless" evaluations were performed.
#>   See https://tinyurl.com/yyrrwkce
#>   It could also mean the convergence is poor, check results before accepting fit
#>   You may also try a good derivative free optimization:
#>     nlmixr2(...,control=list(outerOpt="bobyqa"))
#> 
#> ── Fit Data (object is a modified tibble): ──
#> # A tibble: 132 × 28
#>   ID     TIME    DV EPRED   ERES   NPDE    NPD    PDE    PD  PRED    RES   WRES
#>   <fct> <dbl> <dbl> <dbl>  <dbl>  <dbl>  <dbl>  <dbl> <dbl> <dbl>  <dbl>  <dbl>
#> 1 1      0     0.74 0.109  0.631  0.440  0.878 0.67   0.81   0     0.74   1.06 
#> 2 1      0.25  2.84 3.71  -0.866 -0.477 -0.412 0.317  0.34   3.36 -0.515 -0.270
#> 3 1      0.57  6.57 6.02   0.546 -1.79   0.271 0.0367 0.607  5.95  0.619  0.248
#> # ℹ 129 more rows
#> # ℹ 16 more variables: IPRED <dbl>, IRES <dbl>, IWRES <dbl>, CPRED <dbl>,
#> #   CRES <dbl>, CWRES <dbl>, eta.ka <dbl>, eta.cl <dbl>, eta.v <dbl>,
#> #   depot <dbl>, center <dbl>, ka <dbl>, cl <dbl>, v <dbl>, tad <dbl>,
#> #   dosenum <dbl>
```
…
#>    • using S matrix to calculate covariance, can check sandwich or R matrix with $covRS and $covR 
#>    • last objective function was not at minimum, possible problems in optimization 
#>    • ETAs were reset to zero during optimization; (Can control by foceiControl(resetEtaP=.)) 
#>    • initial ETAs were nudged; (can control by foceiControl(etaNudge=., etaNudge2=)) 
#>   Censoring ($censInformation): No censoring
#>   Minimization message ($message):  
#>     false convergence (8) 
#>   In an ODE system, false convergence may mean "useless" evaluations were performed.
#>   See https://tinyurl.com/yyrrwkce
#>   It could also mean the convergence is poor, check results before accepting fit
#>   You may also try a good derivative free optimization:
#>     nlmixr2(...,control=list(outerOpt="bobyqa"))
#> 
#> ── Fit Data (object is a modified tibble): ──
#> # A tibble: 132 × 28
#>   ID     TIME    DV EPRED   ERES   NPDE    NPD    PDE    PD  PRED    RES   WRES
#>   <fct> <dbl> <dbl> <dbl>  <dbl>  <dbl>  <dbl>  <dbl> <dbl> <dbl>  <dbl>  <dbl>
#> 1 1      0     0.74 0.109  0.631  0.449  0.878 0.673  0.81   0     0.74   1.06 
#> 2 1      0.25  2.84 3.65  -0.808 -0.496 -0.394 0.31   0.347  3.29 -0.455 -0.241
#> 3 1      0.57  6.57 5.96   0.611 -1.79   0.314 0.0367 0.623  5.87  0.697  0.280
#> # ℹ 129 more rows
#> # ℹ 16 more variables: IPRED <dbl>, IRES <dbl>, IWRES <dbl>, CPRED <dbl>,
#> #   CRES <dbl>, CWRES <dbl>, eta.ka <dbl>, eta.cl <dbl>, eta.v <dbl>,
#> #   depot <dbl>, center <dbl>, ka <dbl>, cl <dbl>, v <dbl>, tad <dbl>,
#> #   dosenum <dbl>
```
…
#>    • gradient problems with initial estimate and covariance; see $scaleInfo 
#>    • last objective function was not at minimum, possible problems in optimization 
#>    • ETAs were reset to zero during optimization; (Can control by foceiControl(resetEtaP=.)) 
#>    • initial ETAs were nudged; (can control by foceiControl(etaNudge=., etaNudge2=)) 
#>   Censoring ($censInformation): No censoring
#>   Minimization message ($message):  
#>     false convergence (8) 
#>   In an ODE system, false convergence may mean "useless" evaluations were performed.
#>   See https://tinyurl.com/yyrrwkce
#>   It could also mean the convergence is poor, check results before accepting fit
#>   You may also try a good derivative free optimization:
#>     nlmixr2(...,control=list(outerOpt="bobyqa"))
#> 
#> ── Fit Data (object is a modified tibble): ──
#> # A tibble: 132 × 28
#>   ID     TIME    DV EPRED   ERES   NPDE    NPD    PDE    PD  PRED    RES   WRES
#>   <fct> <dbl> <dbl> <dbl>  <dbl>  <dbl>  <dbl>  <dbl> <dbl> <dbl>  <dbl>  <dbl>
#> 1 1      0     0.74 0.109  0.631  0.458  0.878 0.677  0.81   0     0.74   1.06 
#> 2 1      0.25  2.84 3.68  -0.836 -0.477 -0.394 0.317  0.347  3.32 -0.481 -0.252
#> 3 1      0.57  6.57 5.98   0.588 -1.79   0.297 0.0367 0.617  5.90  0.668  0.266
#> # ℹ 129 more rows
#> # ℹ 16 more variables: IPRED <dbl>, IRES <dbl>, IWRES <dbl>, CPRED <dbl>,
#> #   CRES <dbl>, CWRES <dbl>, eta.ka <dbl>, eta.cl <dbl>, eta.v <dbl>,
#> #   depot <dbl>, center <dbl>, ka <dbl>, cl <dbl>, v <dbl>, tad <dbl>,
#> #   dosenum <dbl>
```
…
#>  
#>   Covariance Type ($covMethod): r,s
#>   No correlations in between subject variability (BSV) matrix
#>   Full BSV covariance ($omega) or correlation ($omegaR; diagonals=SDs) 
#>   Distribution stats (mean/skewness/kurtosis/p-value) available in $shrink 
#>   Information about run found ($runInfo):
#>    • gradient problems with initial estimate and covariance; see $scaleInfo 
#>    • ETAs were reset to zero during optimization; (Can control by foceiControl(resetEtaP=.)) 
#>    • initial ETAs were nudged; (can control by foceiControl(etaNudge=., etaNudge2=)) 
#>   Censoring ($censInformation): No censoring
#>   Minimization message ($message):  
#>     relative convergence (4) 
#> 
#> ── Fit Data (object is a modified tibble): ──
#> # A tibble: 132 × 27
#>   ID     TIME    DV EPRED   ERES    NPDE    NPD    PDE    PD  PRED    RES   WRES
#>   <fct> <dbl> <dbl> <dbl>  <dbl>   <dbl>  <dbl>  <dbl> <dbl> <dbl>  <dbl>  <dbl>
#> 1 1      0     0.74 0.160  0.580  0.0753  0.486 0.53   0.687  0     0.74   0.725
#> 2 1      0.25  2.84 3.17  -0.331 -1.38   -0.245 0.0833 0.403  3.12 -0.275 -0.245
#> 3 1      0.57  6.57 5.67   0.904 -0.515   0.685 0.303  0.753  5.61  0.964  0.733
#> # ℹ 129 more rows
#> # ℹ 15 more variables: IPRED <dbl>, IRES <dbl>, IWRES <dbl>, CPRED <dbl>,
#> #   CRES <dbl>, CWRES <dbl>, eta.cl <dbl>, eta.v <dbl>, depot <dbl>,
#> #   center <dbl>, ka <dbl>, cl <dbl>, v <dbl>, tad <dbl>, dosenum <dbl>
```
…
#>    • gradient problems with initial estimate and covariance; see $scaleInfo 
#>    • last objective function was not at minimum, possible problems in optimization 
#>    • ETAs were reset to zero during optimization; (Can control by foceiControl(resetEtaP=.)) 
#>    • initial ETAs were nudged; (can control by foceiControl(etaNudge=., etaNudge2=)) 
#>   Censoring ($censInformation): No censoring
#>   Minimization message ($message):  
#>     false convergence (8) 
#>   In an ODE system, false convergence may mean "useless" evaluations were performed.
#>   See https://tinyurl.com/yyrrwkce
#>   It could also mean the convergence is poor, check results before accepting fit
#>   You may also try a good derivative free optimization:
#>     nlmixr2(...,control=list(outerOpt="bobyqa"))
#> 
#> ── Fit Data (object is a modified tibble): ──
#> # A tibble: 132 × 28
#>   ID     TIME    DV EPRED   ERES   NPDE    NPD   PDE    PD  PRED    RES   WRES
#>   <fct> <dbl> <dbl> <dbl>  <dbl>  <dbl>  <dbl> <dbl> <dbl> <dbl>  <dbl>  <dbl>
#> 1 1      0     0.74 0.109  0.631  0.431  0.878 0.667 0.81   0     0.74   1.06 
#> 2 1      0.25  2.84 3.72  -0.882 -0.915 -0.314 0.18  0.377  3.33 -0.489 -0.268
#> 3 1      0.57  6.57 6.05   0.516 -1.28   0.279 0.1   0.61   5.92  0.653  0.272
#> # ℹ 129 more rows
#> # ℹ 16 more variables: IPRED <dbl>, IRES <dbl>, IWRES <dbl>, CPRED <dbl>,
#> #   CRES <dbl>, CWRES <dbl>, eta.cl <dbl>, eta.v <dbl>, bsv.ka <dbl>,
#> #   depot <dbl>, center <dbl>, ka <dbl>, cl <dbl>, v <dbl>, tad <dbl>,
#> #   dosenum <dbl>
```
…
#>    • gradient problems with initial estimate and covariance; see $scaleInfo 
#>    • last objective function was not at minimum, possible problems in optimization 
#>    • ETAs were reset to zero during optimization; (Can control by foceiControl(resetEtaP=.)) 
#>    • initial ETAs were nudged; (can control by foceiControl(etaNudge=., etaNudge2=)) 
#>   Censoring ($censInformation): No censoring
#>   Minimization message ($message):  
#>     false convergence (8) 
#>   In an ODE system, false convergence may mean "useless" evaluations were performed.
#>   See https://tinyurl.com/yyrrwkce
#>   It could also mean the convergence is poor, check results before accepting fit
#>   You may also try a good derivative free optimization:
#>     nlmixr2(...,control=list(outerOpt="bobyqa"))
#> 
#> ── Fit Data (object is a modified tibble): ──
#> # A tibble: 132 × 29
#>   ID     TIME    DV EPRED   ERES   NPDE    NPD    PDE    PD  PRED    RES   WRES
#>   <fct> <dbl> <dbl> <dbl>  <dbl>  <dbl>  <dbl>  <dbl> <dbl> <dbl>  <dbl>  <dbl>
#> 1 1      0     0.74 0.109  0.631  0.394  0.890 0.653  0.813  0     0.74   1.07 
#> 2 1      0.25  2.84 3.72  -0.884 -0.332 -0.431 0.37   0.333  3.37 -0.529 -0.275
#> 3 1      0.57  6.57 6.03   0.537 -1.79   0.262 0.0367 0.603  5.96  0.608  0.242
#> # ℹ 129 more rows
#> # ℹ 17 more variables: IPRED <dbl>, IRES <dbl>, IWRES <dbl>, CPRED <dbl>,
#> #   CRES <dbl>, CWRES <dbl>, eta.ka <dbl>, eta.cl <dbl>, eta.v <dbl>,
#> #   depot <dbl>, center <dbl>, ka <dbl>, cl <dbl>, v <dbl>, tad <dbl>,
#> #   dosenum <dbl>, WT <dbl>
```
…
#>    • gradient problems with initial estimate and covariance; see $scaleInfo 
#>    • last objective function was not at minimum, possible problems in optimization 
#>    • ETAs were reset to zero during optimization; (Can control by foceiControl(resetEtaP=.)) 
#>    • initial ETAs were nudged; (can control by foceiControl(etaNudge=., etaNudge2=)) 
#>   Censoring ($censInformation): No censoring
#>   Minimization message ($message):  
#>     false convergence (8) 
#>   In an ODE system, false convergence may mean "useless" evaluations were performed.
#>   See https://tinyurl.com/yyrrwkce
#>   It could also mean the convergence is poor, check results before accepting fit
#>   You may also try a good derivative free optimization:
#>     nlmixr2(...,control=list(outerOpt="bobyqa"))
#> 
#> ── Fit Data (object is a modified tibble): ──
#> # A tibble: 132 × 28
#>   ID     TIME    DV  EPRED   ERES   NPDE    NPD   PDE    PD  PRED    RES   WRES
#>   <fct> <dbl> <dbl>  <dbl>  <dbl>  <dbl>  <dbl> <dbl> <dbl> <dbl>  <dbl>  <dbl>
#> 1 1      0     0.74 0.0451  0.695  0.866  2.33  0.807 0.99   0     0.74   2.58 
#> 2 1      0.25  2.84 3.42   -0.582 -0.654 -0.271 0.257 0.393  3.10 -0.258 -0.149
#> 3 1      0.57  6.57 5.73    0.844 -0.341  0.385 0.367 0.65   5.60  0.973  0.395
#> # ℹ 129 more rows
#> # ℹ 16 more variables: IPRED <dbl>, IRES <dbl>, IWRES <dbl>, CPRED <dbl>,
#> #   CRES <dbl>, CWRES <dbl>, eta.ka <dbl>, eta.cl <dbl>, eta.v <dbl>,
#> #   depot <dbl>, center <dbl>, ka <dbl>, cl <dbl>, v <dbl>, tad <dbl>,
#> #   dosenum <dbl>
```
…
