Working with multiple endpoints • nlmixr2
…
#> pkadd.err            
#> temax          81.1% 
#> tec50          9.86% 
#> tkout          45.4% 
#> te0            17.0% 
#> pdadd.err            
#>  
#>   Covariance Type ($covMethod): linFim
#>   No correlations in between subject variability (BSV) matrix
#>   Full BSV covariance ($omega) or correlation ($omegaR; diagonals=SDs) 
#>   Distribution stats (mean/skewness/kurtosis/p-value) available in $shrink 
#>   Censoring ($censInformation): No censoring
#> 
#> ── Fit Data (object is a modified tibble): ──
#> # A tibble: 483 × 44
#>   ID     TIME CMT      DV EPRED  ERES  NPDE    NPD    PDE     PD  PRED   RES
#>   <fct> <dbl> <fct> <dbl> <dbl> <dbl> <dbl>  <dbl>  <dbl>  <dbl> <dbl> <dbl>
#> 1 1       0.5 cp      0    1.76 -1.76 -1.79 -1.50  0.0367 0.0667  1.38 -1.38
#> 2 1       1   cp      1.9  4.06 -2.16  1.75 -0.954 0.96   0.17    3.87 -1.97
#> 3 1       2   cp      3.3  7.93 -4.63 -1.99 -1.71  0.0233 0.0433  8.18 -4.88
#> # ℹ 480 more rows
#> # ℹ 32 more variables: WRES <dbl>, IPRED <dbl>, IRES <dbl>, IWRES <dbl>,
#> #   CPRED <dbl>, CRES <dbl>, CWRES <dbl>, eta.ktr <dbl>, eta.ka <dbl>,
#> #   eta.cl <dbl>, eta.v <dbl>, eta.emax <dbl>, eta.ec50 <dbl>, eta.kout <dbl>,
#> #   eta.e0 <dbl>, depot <dbl>, gut <dbl>, center <dbl>, effect <dbl>,
#> #   ktr <dbl>, ka <dbl>, cl <dbl>, v <dbl>, emax <dbl>, ec50 <dbl>, kout <dbl>,
#> #   e0 <dbl>, DCP <dbl>, PD.1 <dbl>, kin <dbl>, tad <dbl>, dosenum <dbl>
…
#>    • gradient problems with initial estimate and covariance; see $scaleInfo 
#>    • last objective function was not at minimum, possible problems in optimization 
#>    • ETAs were reset to zero during optimization; (Can control by foceiControl(resetEtaP=.)) 
#>    • initial ETAs were nudged; (can control by foceiControl(etaNudge=., etaNudge2=)) 
#>   Censoring ($censInformation): No censoring
#>   Minimization message ($message):  
#>     false convergence (8) 
#>   In an ODE system, false convergence may mean "useless" evaluations were performed.
#>   See https://tinyurl.com/yyrrwkce
#>   It could also mean the convergence is poor, check results before accepting fit
#>   You may also try a good derivative free optimization:
#>     nlmixr2(...,control=list(outerOpt="bobyqa"))
#> 
#> ── Fit Data (object is a modified tibble): ──
#> # A tibble: 483 × 44
#>   ID     TIME CMT      DV EPRED  ERES  NPDE    NPD   PDE    PD  PRED   RES
#>   <fct> <dbl> <fct> <dbl> <dbl> <dbl> <dbl>  <dbl> <dbl> <dbl> <dbl> <dbl>
#> 1 1       0.5 cp      0    1.76 -1.76 -1.64 -2.05  0.05  0.02   1.22 -1.22
#> 2 1       1   cp      1.9  3.93 -2.03  1.99 -0.643 0.977 0.26   3.51 -1.61
#> 3 1       2   cp      3.3  7.16 -3.86 -2.33 -1.07  0.01  0.143  7.63 -4.33
#> # ℹ 480 more rows
#> # ℹ 32 more variables: WRES <dbl>, IPRED <dbl>, IRES <dbl>, IWRES <dbl>,
#> #   CPRED <dbl>, CRES <dbl>, CWRES <dbl>, eta.ktr <dbl>, eta.ka <dbl>,
#> #   eta.cl <dbl>, eta.v <dbl>, eta.emax <dbl>, eta.ec50 <dbl>, eta.kout <dbl>,
#> #   eta.e0 <dbl>, depot <dbl>, gut <dbl>, center <dbl>, effect <dbl>,
#> #   ktr <dbl>, ka <dbl>, cl <dbl>, v <dbl>, emax <dbl>, ec50 <dbl>, kout <dbl>,
#> #   e0 <dbl>, DCP <dbl>, PD.1 <dbl>, kin <dbl>, tad <dbl>, dosenum <dbl>
…
