…
#>  
#>   Covariance Type ($covMethod): r,s
#>   No correlations in between subject variability (BSV) matrix
#>   Full BSV covariance ($omega) or correlation ($omegaR; diagonals=SDs) 
#>   Distribution stats (mean/skewness/kurtosis/p-value) available in $shrink 
#>   Information about run found ($runInfo):
#>    • gradient problems with initial estimate and covariance; see $scaleInfo 
#>    • ETAs were reset to zero during optimization; (Can control by foceiControl(resetEtaP=.)) 
#>    • initial ETAs were nudged; (can control by foceiControl(etaNudge=., etaNudge2=)) 
#>   Censoring ($censInformation): No censoring
#>   Minimization message ($message):  
#>     relative convergence (4) 
#> 
#> ── Fit Data (object is a modified tibble): ──
#> # A tibble: 132 × 22
#>   ID     TIME    DV  PRED    RES   WRES IPRED   IRES  IWRES CPRED   CRES  CWRES
#>   <fct> <dbl> <dbl> <dbl>  <dbl>  <dbl> <dbl>  <dbl>  <dbl> <dbl>  <dbl>  <dbl>
#> 1 1      0     0.74  0     0.74   1.07   0     0.74   1.07   0     0.74   1.07 
#> 2 1      0.25  2.84  3.26 -0.417 -0.502  3.84 -1.00  -1.45   3.50 -0.656 -0.746
#> 3 1      0.57  6.57  5.82  0.746  0.695  6.78 -0.215 -0.311  6.17  0.401  0.340
#> # ℹ 129 more rows
#> # ℹ 10 more variables: eta.ka <dbl>, eta.cl <dbl>, eta.v <dbl>, depot <dbl>,
#> #   central <dbl>, ka <dbl>, cl <dbl>, v <dbl>, tad <dbl>, dosenum <dbl>
```
…
#> 
#>         Est.     SE %RSE Back-transformed(95%CI) BSV(CV%) Shrink(SD)%
#> tka    0.464  0.195   42       1.59 (1.09, 2.33)     71.1   -0.0900% 
#> tcl     1.01  0.085 8.43       2.74 (2.32, 3.24)     27.4      4.80% 
#> tv      3.46 0.0447 1.29         31.7 (29, 34.6)     13.1      8.77% 
#> add.sd 0.696                               0.696                     
#>  
#>   Covariance Type ($covMethod): linFim
#>   No correlations in between subject variability (BSV) matrix
#>   Full BSV covariance ($omega) or correlation ($omegaR; diagonals=SDs) 
#>   Distribution stats (mean/skewness/kurtosis/p-value) available in $shrink 
#>   Censoring ($censInformation): No censoring
#> 
#> ── Fit Data (object is a modified tibble): ──
#> # A tibble: 132 × 19
#>   ID     TIME    DV  PRED    RES IPRED   IRES  IWRES eta.ka eta.cl   eta.v    cp
#>   <fct> <dbl> <dbl> <dbl>  <dbl> <dbl>  <dbl>  <dbl>  <dbl>  <dbl>   <dbl> <dbl>
#> 1 1      0     0.74  0     0.74   0     0.74   1.06  0.0839 -0.477 -0.0849  0   
#> 2 1      0.25  2.84  3.28 -0.437  3.83 -0.991 -1.42  0.0839 -0.477 -0.0849  3.83
#> 3 1      0.57  6.57  5.86  0.715  6.76 -0.194 -0.278 0.0839 -0.477 -0.0849  6.76
#> # ℹ 129 more rows
#> # ℹ 7 more variables: depot <dbl>, center <dbl>, ka <dbl>, cl <dbl>, v <dbl>,
#> #   tad <dbl>, dosenum <dbl>
```
…
#> 
#>          Est.      SE  %RSE Back-transformed(95%CI) BSV(CV%) Shrink(SD)%
#> tka    0.4443  0.1916 43.12     1.559 (1.071, 2.27)     68.7     -3.49% 
#> tcl     1.039 0.08335 8.026    2.825 (2.399, 3.327)     27.0      7.85% 
#> tv       3.45 0.04494 1.303      31.5 (28.84, 34.4)     13.5      7.29% 
#> add.sd 0.6979                                0.6979                     
#>  
#>   Covariance Type ($covMethod): nlme
#>   No correlations in between subject variability (BSV) matrix
#>   Full BSV covariance ($omega) or correlation ($omegaR; diagonals=SDs) 
#>   Distribution stats (mean/skewness/kurtosis/p-value) available in $shrink 
#>   Censoring ($censInformation): No censoring
#> 
#> ── Fit Data (object is a modified tibble): ──
#> # A tibble: 132 × 19
#>   ID     TIME    DV  PRED    RES IPRED   IRES  IWRES eta.ka eta.cl   eta.v    cp
#>   <fct> <dbl> <dbl> <dbl>  <dbl> <dbl>  <dbl>  <dbl>  <dbl>  <dbl>   <dbl> <dbl>
#> 1 1      0     0.74  0     0.74   0     0.74   1.06  0.0756 -0.483 -0.0896  0   
#> 2 1      0.25  2.84  3.24 -0.401  3.78 -0.943 -1.35  0.0756 -0.483 -0.0896  3.78
#> 3 1      0.57  6.57  5.81  0.760  6.72 -0.146 -0.210 0.0756 -0.483 -0.0896  6.72
#> # ℹ 129 more rows
#> # ℹ 7 more variables: depot <dbl>, center <dbl>, ka <dbl>, cl <dbl>, v <dbl>,
#> #   tad <dbl>, dosenum <dbl>
```
…
