Running PK models with nlmixr • nlmixr2
…
#> ── Population Parameters ($parFixed or $parFixedDf): ───────────────────────────
#> 
#>        Parameter  Est.     SE %RSE Back-transformed(95%CI) BSV(CV%) Shrink(SD)%
#> tka           Ka 0.453  0.195 43.1       1.57 (1.07, 2.31)     71.4    -0.445% 
#> tcl       Log Cl  1.02 0.0843 8.29       2.76 (2.34, 3.26)     27.2      3.88% 
#> tv         log V  3.45 0.0467 1.35       31.5 (28.8, 34.5)     13.9      10.2% 
#> add.sd           0.695                               0.695                     
#>  
#>   Covariance Type ($covMethod): linFim
#>   No correlations in between subject variability (BSV) matrix
#>   Full BSV covariance ($omega) or correlation ($omegaR; diagonals=SDs) 
#>   Distribution stats (mean/skewness/kurtosis/p-value) available in $shrink 
#> 
#> ── Fit Data (object is a modified tibble): ─────────────────────────────────────
#> # A tibble: 132 × 16
#>   ID     TIME    DV  PRED    RES IPRED   IRES  IWRES eta.ka eta.cl   eta.v    ka
#>   <fct> <dbl> <dbl> <dbl>  <dbl> <dbl>  <dbl>  <dbl>  <dbl>  <dbl>   <dbl> <dbl>
#> 1 1      0     0.74  0     0.74   0     0.74   1.07   0.107 -0.485 -0.0809  1.75
#> 2 1      0.25  2.84  3.26 -0.424  3.87 -1.03  -1.49   0.107 -0.485 -0.0809  1.75
#> 3 1      0.57  6.57  5.84  0.726  6.82 -0.250 -0.360  0.107 -0.485 -0.0809  1.75
#> # … with 129 more rows, and 4 more variables: cl <dbl>, v <dbl>, tad <dbl>,
#> #   dosenum <dbl>
…
#> ── Population Parameters ($parFixed or $parFixedDf): ───────────────────────────
#> 
#>        Parameter  Est.     SE %RSE Back-transformed(95%CI) BSV(CV%) Shrink(SD)%
#> tka       Log Ka 0.454  0.196 43.1       1.57 (1.07, 2.31)     71.5   -0.0203% 
#> tcl       Log Cl  1.02 0.0853  8.4       2.76 (2.34, 3.26)     27.6      3.46% 
#> tv         Log V  3.45 0.0454 1.32       31.5 (28.8, 34.4)     13.4      9.89% 
#> add.sd           0.693                               0.693                     
#>  
#>   Covariance Type ($covMethod): linFim
#>   No correlations in between subject variability (BSV) matrix
#>   Full BSV covariance ($omega) or correlation ($omegaR; diagonals=SDs) 
#>   Distribution stats (mean/skewness/kurtosis/p-value) available in $shrink 
#> 
#> ── Fit Data (object is a modified tibble): ─────────────────────────────────────
#> # A tibble: 132 × 19
#>   ID     TIME    DV  PRED    RES IPRED   IRES  IWRES eta.ka eta.cl   eta.v    cp
#>   <fct> <dbl> <dbl> <dbl>  <dbl> <dbl>  <dbl>  <dbl>  <dbl>  <dbl>   <dbl> <dbl>
#> 1 1      0     0.74  0     0.74   0     0.74   1.07   0.103 -0.491 -0.0820  0   
#> 2 1      0.25  2.84  3.27 -0.426  3.87 -1.03  -1.48   0.103 -0.491 -0.0820  3.87
#> 3 1      0.57  6.57  5.85  0.723  6.82 -0.246 -0.356  0.103 -0.491 -0.0820  6.82
#> # … with 129 more rows, and 7 more variables: depot <dbl>, center <dbl>,
#> #   ka <dbl>, cl <dbl>, v <dbl>, tad <dbl>, dosenum <dbl>
…
#> tv         Log V  3.451 0.04622  1.34    31.53 (28.79, 34.51)     13.5
#> add.sd           0.6988                                0.6988         
#>        Shrink(SD)%
#> tka        -6.31% 
#> tcl         7.24% 
#> tv          7.82% 
#> add.sd            
#>  
#>   Covariance Type ($covMethod): nlme
#>   No correlations in between subject variability (BSV) matrix
#>   Full BSV covariance ($omega) or correlation ($omegaR; diagonals=SDs) 
#>   Distribution stats (mean/skewness/kurtosis/p-value) available in $shrink 
#> 
#> ── Fit Data (object is a modified tibble): ─────────────────────────────────────
#> # A tibble: 132 × 19
#>   ID     TIME    DV  PRED    RES IPRED   IRES  IWRES eta.ka eta.cl   eta.v    cp
#>   <fct> <dbl> <dbl> <dbl>  <dbl> <dbl>  <dbl>  <dbl>  <dbl>  <dbl>   <dbl> <dbl>
#> 1 1      0     0.74  0     0.74   0     0.74   1.06  0.0740 -0.478 -0.0902  0   
#> 2 1      0.25  2.84  3.24 -0.404  3.78 -0.944 -1.35  0.0740 -0.478 -0.0902  3.78
#> 3 1      0.57  6.57  5.81  0.756  6.72 -0.147 -0.210 0.0740 -0.478 -0.0902  6.72
#> # … with 129 more rows, and 7 more variables: depot <dbl>, center <dbl>,
#> #   ka <dbl>, cl <dbl>, v <dbl>, tad <dbl>, dosenum <dbl>
…
#> ── Population Parameters ($parFixed or $parFixedDf): ───────────────────────────
#> 
#>        Parameter  Est.     SE %RSE Back-transformed(95%CI) BSV(CV%) Shrink(SD)%
#> tka           Ka 0.453  0.195 43.1       1.57 (1.07, 2.31)     71.4    -0.445% 
#> tcl       Log Cl  1.02 0.0843 8.29       2.76 (2.34, 3.26)     27.2      3.88% 
#> tv         log V  3.45 0.0467 1.35       31.5 (28.8, 34.5)     13.9      10.2% 
#> add.sd           0.695                               0.695                     
#>  
#>   Covariance Type ($covMethod): linFim
#>   No correlations in between subject variability (BSV) matrix
#>   Full BSV covariance ($omega) or correlation ($omegaR; diagonals=SDs) 
#>   Distribution stats (mean/skewness/kurtosis/p-value) available in $shrink 
#> 
#> ── Fit Data (object is a modified tibble): ─────────────────────────────────────
#> # A tibble: 132 × 16
#>   ID     TIME    DV  PRED    RES IPRED   IRES  IWRES eta.ka eta.cl   eta.v    ka
#>   <fct> <dbl> <dbl> <dbl>  <dbl> <dbl>  <dbl>  <dbl>  <dbl>  <dbl>   <dbl> <dbl>
#> 1 1      0     0.74  0     0.74   0     0.74   1.07   0.107 -0.485 -0.0809  1.75
#> 2 1      0.25  2.84  3.26 -0.424  3.87 -1.03  -1.49   0.107 -0.485 -0.0809  1.75
#> 3 1      0.57  6.57  5.84  0.726  6.82 -0.250 -0.360  0.107 -0.485 -0.0809  1.75
#> # … with 129 more rows, and 4 more variables: cl <dbl>, v <dbl>, tad <dbl>,
#> #   dosenum <dbl>
…
