…
``` r
# Start a new simulation
ev <- et(amt=100, ii=8, ss=1)
```

``` r
ev$add.sampling(seq(0, 8, length.out=50))
print(ev)
#> ── EventTable with 51 records ──
#> 1 dosing records (see $get.dosing(); add with add.dosing or et)
#> 50 observation times (see $get.sampling(); add with add.sampling or et)
#> ── First part of : ──
#> # A tibble: 51 × 5
#>     time   amt    ii evid             ss
#>    <dbl> <dbl> <dbl> <evid>        <int>
#>  1 0        NA    NA 0:Observation    NA
#>  2 0       100     8 1:Dose (Add)      1
#>  3 0.163    NA    NA 0:Observation    NA
#>  4 0.327    NA    NA 0:Observation    NA
#>  5 0.490    NA    NA 0:Observation    NA
#>  6 0.653    NA    NA 0:Observation    NA
#>  7 0.816    NA    NA 0:Observation    NA
#>  8 0.980    NA    NA 0:Observation    NA
#>  9 1.14     NA    NA 0:Observation    NA
#> 10 1.31     NA    NA 0:Observation    NA
#> # ℹ 41 more rows
```
…
If you wish to simulate `100` patients repeated by `100` different
theoretical studies where you simulate from the uncertainty in the fixed
parameter estimates and covariances you can very easily with
nlmixr2/rxode2:

``` r
set.seed(100)
sim1 <- rxSolve(cmt2fit.logn, ev, nSub=100, nStud=100)
#> [====|====|====|====|====|====|====|====|====|====
print(sim1)
#> ── Solved rxode2 object ──
#> ── Parameters ($params): ──
#> # A tibble: 10,000 × 10
#>    sim.id   lka    lv   lcl    lq   lvp logn.sd  eta.ka   eta.v   eta.cl
#>     <int> <dbl> <dbl> <dbl> <dbl> <dbl>   <dbl>   <dbl>   <dbl>    <dbl>
#>  1      1 -2.26  2.25  1.90  2.10  3.11    1.04  0.0114 -0.0174 -0.752  
#>  2      2 -2.26  2.25  1.90  2.10  3.11    1.04  0.193  -0.167  -0.716  
#>  3      3 -2.26  2.25  1.90  2.10  3.11    1.04  0.155   0.377  -0.00240
#>  4      4 -2.26  2.25  1.90  2.10  3.11    1.04 -0.0459  0.0259  0.373  
#>  5      5 -2.26  2.25  1.90  2.10  3.11    1.04  0.250  -0.416  -0.0179 
#>  6      6 -2.26  2.25  1.90  2.10  3.11    1.04  0.164   0.216  -0.328  
#>  7      7 -2.26  2.25  1.90  2.10  3.11    1.04 -0.0476 -0.109  -0.936  
#>  8      8 -2.26  2.25  1.90  2.10  3.11    1.04 -0.0652 -0.911  -0.228  
#>  9      9 -2.26  2.25  1.90  2.10  3.11    1.04 -0.0116  0.335   0.281  
#> 10     10 -2.26  2.25  1.90  2.10  3.11    1.04  0.167  -0.195  -0.0404 
#> # ℹ 9,990 more rows
#> ── Initial Conditions ($inits): ──
#>       depot     central peripheral1 
#>           0           0           0 
#> 
#> Simulation with uncertainty in:
#> • parameters ($thetaMat for changes)
#> • omega matrix ($omegaList)
#> • sigma matrix ($sigmaList)
#> 
#> ── First part of data (object): ──
#> # A tibble: 500,000 × 12
#>   sim.id  time    ka    cl     v     q    vp ipredSim   sim depot central
#>    <int> <dbl> <dbl> <dbl> <dbl> <dbl> <dbl>    <dbl> <dbl> <dbl>   <dbl>
#> 1      1 0     0.106  3.14  9.36  8.21  22.4     3.60  5.49  175.    33.8
#> 2      1 0.163 0.106  3.14  9.36  8.21  22.4     3.75  1.77  172.    35.1
#> 3      1 0.327 0.106  3.14  9.36  8.21  22.4     3.86 12.5   169.    36.2
#> 4      1 0.490 0.106  3.14  9.36  8.21  22.4     3.95 32.7   166.    37.0
#> 5      1 0.653 0.106  3.14  9.36  8.21  22.4     4.02  1.13  163.    37.6
#> 6      1 0.816 0.106  3.14  9.36  8.21  22.4     4.07  2.21  160.    38.1
#> # ℹ 499,994 more rows
#> # ℹ 1 more variable: peripheral1 <dbl>
```
…
