xgxr and ggPMX integration with nlmixr2 • nlmixr2
…
0
100
8
1
1

ev$add.sampling(seq(0, 8, length.out=50))
print(ev)
#> ── EventTable with 51 records ──
#> 1 dosing records (see $get.dosing(); add with add.dosing or et)
#> 50 observation times (see $get.sampling(); add with add.sampling or et)
#> ── First part of : ──
#> # A tibble: 51 × 5
#>     time   amt    ii evid             ss
#>    <dbl> <dbl> <dbl> <evid>        <int>
#>  1 0        NA    NA 0:Observation    NA
#>  2 0       100     8 1:Dose (Add)      1
#>  3 0.163    NA    NA 0:Observation    NA
#>  4 0.327    NA    NA 0:Observation    NA
#>  5 0.490    NA    NA 0:Observation    NA
#>  6 0.653    NA    NA 0:Observation    NA
#>  7 0.816    NA    NA 0:Observation    NA
#>  8 0.980    NA    NA 0:Observation    NA
#>  9 1.14     NA    NA 0:Observation    NA
#> 10 1.31     NA    NA 0:Observation    NA
#> # … with 41 more rows

A nlmixr model already includes information about the parameter estimates and can simulate without uncertainty in the population parameters or covariances, like what is done for a VPC.

If you wish to simulate 100 patients repeated by 100 different theoretical studies where you simulate from the uncertainty in the fixed parameter estimates and covariances you can very easily with nlmixr2/rxode2:

set.seed(100)
sim1 <- rxSolve(cmt2fit.logn, ev, nSub=100, nStud=100)
print(sim1)
#> ── Solved rxode2 object ──
#> ── Parameters ($params): ──
#> # A tibble: 10,000 × 10
#>    sim.id   lka    lv   lcl    lq   lvp logn.sd eta.ka    eta.v  eta.cl
#>     <int> <dbl> <dbl> <dbl> <dbl> <dbl>   <dbl>  <dbl>    <dbl>   <dbl>
#>  1      1 -1.15 0.984  2.14  2.51  4.63   0.352  0.356  0.103    0.435 
#>  2      2 -1.15 0.984  2.14  2.51  4.63   0.352 -0.618 -0.00364  0.0610
#>  3      3 -1.15 0.984  2.14  2.51  4.63   0.352  0.239  0.00271  0.694 
#>  4      4 -1.15 0.984  2.14  2.51  4.63   0.352 -0.525  0.261   -0.506 
#>  5      5 -1.15 0.984  2.14  2.51  4.63   0.352  0.492 -1.22     0.579 
#>  6      6 -1.15 0.984  2.14  2.51  4.63   0.352 -1.20   0.144    0.214 
#>  7      7 -1.15 0.984  2.14  2.51  4.63   0.352 -2.10  -0.829    0.165 
#>  8      8 -1.15 0.984  2.14  2.51  4.63   0.352 -0.920  0.272   -0.744 
#>  9      9 -1.15 0.984  2.14  2.51  4.63   0.352  1.32  -0.136    0.269 
#> 10     10 -1.15 0.984  2.14  2.51  4.63   0.352 -0.553 -0.596   -0.428 
#> # … with 9,990 more rows
#> ── Initial Conditions ($inits): ──
#> named numeric(0)
#> 
#> Simulation with uncertainty in:
#> • parameters ($thetaMat for changes)
#> • omega matrix ($omegaList)
#> • sigma matrix ($sigmaList)
#> 
#> ── First part of data (object): ──
#> # A tibble: 500,000 × 9
#>   sim.id  time    ka    cl     v     q    vp ipredSim   sim
#>    <int> <dbl> <dbl> <dbl> <dbl> <dbl> <dbl>    <dbl> <dbl>
#> 1      1 0     0.451  13.2  2.97  12.3  103.    0.460 0.559
#> 2      1 0.163 0.451  13.2  2.97  12.3  103.    1.73  1.85 
#> 3      1 0.327 0.451  13.2  2.97  12.3  103.    1.96  2.03 
#> 4      1 0.490 0.451  13.2  2.97  12.3  103.    1.93  1.81 
#> 5      1 0.653 0.451  13.2  2.97  12.3  103.    1.86  2.23 
#> 6      1 0.816 0.451  13.2  2.97  12.3  103.    1.77  0.884
#> # … with 499,994 more rows
…
